<?xml version="1.0" encoding="UTF-8" standalone="no"?>
<svg xmlns:svg="http://www.w3.org/2000/svg" height="498.8976377952756" width="982.6771653543308">
  <g transform="translate(436, 115)" stroke="red">
    <g id="g10" inkscape:groupmode="layer" inkscape:label="ink_ext_XXXXXX" transform="matrix(1.3333333,0,0,-1.3333333,0,0)">
      <path d="m 13.726028,0.688685 h -1.836 c -1.824,7.559 -7.1399998,7.274 -9.4999998,0 H 0.55402823 l 5.42199997,16.313 h 2.328 l 5.4219998,-16.313" id="path1758" inkscape:connector-curvature="0" style="fill:none;stroke-width:0.79936999;stroke-linecap:butt;stroke-linejoin:miter;stroke-miterlimit:4;stroke-dasharray:none;stroke-opacity:1">
      </path>
      <path d="m 26.941028,11.489685 h -1.465 c -0.969,1.774 -0.074,3.996 -3.5,4.047 v -13.387 h 2.625 v -1.461 h -6.984 v 1.461 h 2.636 v 13.387 c -3.578,-0.051 -1.812,-1.754 -3.5,-4.047 h -1.464 v 5.512 h 11.652 v -5.512" id="path1760" inkscape:connector-curvature="0" style="fill:none;stroke-width:0.79936999;stroke-linecap:butt;stroke-linejoin:miter;stroke-miterlimit:4;stroke-dasharray:none;stroke-opacity:1">
      </path>
      <path d="m 41.089028,0.688685 h -2.175 l -4.762,6.989 h -2.535 v -6.989 h -1.715 v 8.45 h 5.375 c 1.199,0 2.14,0.25 2.824,0.75 0.692,0.507 1.039,1.324 1.039,2.449 m 0,0 c 0,1.109 -0.347,1.918 -1.039,2.426 -0.684,0.515 -1.625,0.773 -2.824,0.773 h -5.375 v 1.465 h 5.375 c 1.793,0 3.18,-0.395 4.164,-1.176 0.98,-0.773 1.473,-1.937 1.473,-3.488 0,-0.684 -0.121,-1.301 -0.36,-1.848 -0.242,-0.543 -0.574,-1.008 -0.988,-1.391 -0.418,-0.382 -0.918,-0.691 -1.5,-0.921 -0.574,-0.235 -1.207,-0.375 -1.887,-0.426 l 4.91,-7.063" id="path1762" inkscape:connector-curvature="0" style="fill:none;stroke-width:0.79936999;stroke-linecap:butt;stroke-linejoin:miter;stroke-miterlimit:4;stroke-dasharray:none;stroke-opacity:1">
      </path>
      <path d="m 54.328028,0.688685 h -10.426 v 16.313 h 10.426 v -1.465 h -8.711 v -5.836 h 6.422 v -1.461 h -6.422 v -6.09 h 8.711 v -1.461" id="path1764" inkscape:connector-curvature="0" style="fill:none;stroke-width:0.79936999;stroke-linecap:butt;stroke-linejoin:miter;stroke-miterlimit:4;stroke-dasharray:none;stroke-opacity:1">
      </path>
      <path d="m 68.328028,6.501685 c 0,-0.926 -0.106,-1.762 -0.313,-2.512 -0.199,-0.75 -0.515,-1.394 -0.949,-1.926 -0.426,-0.527 -0.969,-0.933 -1.625,-1.226 -0.66,-0.293 -1.438,-0.438 -2.34,-0.438 -0.906,0 -1.691,0.145 -2.348,0.438 -0.652,0.293 -1.187,0.699 -1.613,1.226 -0.418,0.532 -0.73,1.18 -0.937,1.938 -0.2,0.758 -0.301,1.597 -0.301,2.523 v 10.477 h 1.715 v -10.5 c 0,-0.492 0.039,-1.012 0.125,-1.563 0.09,-0.55 0.261,-1.05 0.511,-1.5 0.258,-0.449 0.614,-0.824 1.063,-1.125 0.457,-0.3 1.055,-0.449 1.785,-0.449 0.734,0 1.332,0.149 1.789,0.449 0.465,0.301 0.824,0.676 1.074,1.125 0.258,0.45 0.43,0.95 0.512,1.5 0.086,0.551 0.125,1.071 0.125,1.563 v 10.5 h 1.727 v -10.5" id="path1766" inkscape:connector-curvature="0" style="fill:none;stroke-width:0.79936999;stroke-linecap:butt;stroke-linejoin:miter;stroke-miterlimit:4;stroke-dasharray:none;stroke-opacity:1">
      </path>
      <path d="m 82.527028,4.938685 c 0,-0.683 -0.141,-1.304 -0.426,-1.863 -0.281,-0.551 -0.66,-1.023 -1.137,-1.426 -0.472,-0.398 -1.019,-0.707 -1.636,-0.926 -0.618,-0.214 -1.258,-0.324 -1.926,-0.324 -0.918,0 -1.758,0.172 -2.524,0.512 -1.671,0.945 -0.835,1.352 -1.824,-0.223 h -1.453 v 4.961 h 1.453 c 0,-0.558 0.129,-1.07 0.387,-1.535 0.258,-0.461 0.586,-0.855 0.988,-1.187 0.399,-0.336 0.856,-0.598 1.375,-0.789 0.524,-0.184 1.055,-0.274 1.598,-0.274 0.484,0 0.93,0.067 1.34,0.199 0.406,0.141 0.765,0.336 1.074,0.586 0.309,0.258 0.551,0.571 0.723,0.938 0.183,0.367 0.277,0.785 0.277,1.25 0,0.527 -0.117,0.976 -0.352,1.351 -0.222,0.375 -0.531,0.696 -0.925,0.961 -0.383,0.266 -0.817,0.492 -1.297,0.676 -0.485,0.191 -0.977,0.379 -1.477,0.563 -0.594,0.207 -1.183,0.425 -1.773,0.648 -0.594,0.234 -1.121,0.527 -1.59,0.875 -0.465,0.352 -0.844,0.777 -1.137,1.277 -0.293,0.508 -0.437,1.137 -0.437,1.887 0,0.668 0.14,1.258 0.425,1.773 0.282,0.528 0.653,0.969 1.114,1.329 0.457,0.355 0.988,0.628 1.597,0.812 0.61,0.192 1.235,0.285 1.875,0.285 3.387,-0.129 3.051,-1.586 3.762,-0.273 h 1.516 v -4.664 h -1.516 c 0,0.492 -0.101,0.949 -0.312,1.375 -0.2,0.433 -0.473,0.801 -0.825,1.101 -0.347,0.309 -0.75,0.551 -1.199,0.723 -0.449,0.184 -0.926,0.277 -1.426,0.277 -0.441,0 -0.863,-0.05 -1.261,-0.152 -0.399,-0.098 -0.75,-0.262 -1.051,-0.484 -0.301,-0.219 -0.543,-0.5 -0.723,-0.852 -0.176,-0.352 -0.265,-0.766 -0.265,-1.25 0,-0.426 0.105,-0.789 0.312,-1.086 0.219,-0.301 0.504,-0.57 0.863,-0.801 0.36,-0.226 0.77,-0.433 1.239,-0.625 0.476,-0.183 0.957,-0.371 1.449,-0.562 0.617,-0.219 1.23,-0.461 1.84,-0.727 0.605,-0.265 1.152,-0.586 1.636,-0.961 0.481,-0.375 0.879,-0.84 1.188,-1.386 0.309,-0.543 0.461,-1.207 0.461,-1.989" id="path1768" inkscape:connector-curvature="0" style="fill:none;stroke-width:0.79936999;stroke-linecap:butt;stroke-linejoin:miter;stroke-miterlimit:4;stroke-dasharray:none;stroke-opacity:1">
      </path>
    </g>
  </g>
  <g transform="scale(3.7795275590551185, 3.7795275590551185)" stroke-width="1" stroke="black" fill-opacity="0">
    <g>
      <circle r="1.4" cx="240.8027384973133" cy="20.154610771072186">
      </circle>
      <circle r="1.4" cx="254.0" cy="95">
      </circle>
      <circle r="1.4" cx="130" cy="111.79589225403006">
      </circle>
      <circle r="1.4" cx="6.0" cy="95">
      </circle>
      <circle r="1.4" cx="19.197261502686708" cy="20.154610771072186">
      </circle>
    </g>
    <polygon points="19.092547064063005,14.155524600133838 18.987864522471703,14.158265808957612 18.88324576522904,14.162833562544742 18.778722660221955,14.16922646951324 18.67432704620076,14.177442582521712 18.57009072308079,14.187479398862546 18.466045442255826,14.199333861224254 18.362222896926312,14.213002358622763 18.25865471244532,14.22848072750136 18.155372436685127,14.245764252998939 18.05240753042744,14.264847670386201 17.94979135778015,14.285725166669351 17.847555176623516,14.308390382360775 17.745730129088702,14.332836413416207 17.644347232071585,14.359055813337775 17.543437367784716,14.387040595442272 17.443031274350286,14.416782235293974 17.34315953643702,14.448271673301264 17.24385257594377,14.481499317476285 17.145140642732695,14.516455046356736 17.047053805414905,14.553128212088975 16.949621942191236,14.591507643671463 16.852874731751065,14.631581650357544 16.75684164423191,14.67333802521658 16.661551932242514,14.716764048852285 16.567034621952242,14.761846493277185 16.473318504249427,14.80857162594198 16.380432125971364,14.856925213918624 16.288403781208686,14.90689252823581 16.197261502686704,14.958458348365555 16.10703305322638,15.011606966859514 16.017745917287478,15.06632219413363 15.929427292596547,15.122587363399642 15.842104081862228,15.180385335741935 15.75580288458043,15.239698505338236 15.670549988931867,15.300508804822503 15.586371363774418,15.362797710788428 15.50329265073276,15.426546249431853 15.421339156387681,15.491735002330362 15.340535844567471,15.558344112358318 15.260907328743663,15.626353289735555 15.18247786453356,15.69574181820782 15.105271342311717,15.766488561357162 15.029311279932724,15.838571969040277 14.954620815567422,15.911970083952902 14.881222700654801,15.986660548318202 14.809139292971684,16.062620610697195 14.738392549822342,16.139827132919038 14.669004021350075,16.218256597129145 14.600994843972838,16.29788511295295 14.534385733944884,16.37868842477316 14.469196981046375,16.46064191911824 14.40544844240295,16.543720632159896 14.343159536437021,16.627899257317345 14.282349236952758,16.713152152965908 14.223036067356457,16.799453350247706 14.165238095014164,16.88677656098202 14.108972925748152,16.975095185672956 14.054257698474034,17.06438232161186 14.001109079980075,17.154610771072186 13.949543259850333,17.245753049594164 13.899575945533147,17.33778139435684 13.8512223575565,17.430667772634905 13.804497224891705,17.52438389033772 13.759414780466807,17.618901200627988 13.715988756831102,17.714190912617383 13.674232381972065,17.810224000136543 13.634158375285983,17.906971210576714 13.595778943703497,18.004403073800383 13.559105777971258,18.102489911118173 13.524150049090807,18.201201844329244 13.490922404915786,18.300508804822503 13.459432966908494,18.400380542735764 13.429691327056794,18.50078663617019 13.401706544952297,18.60169650045706 13.375487145030728,18.70307939747418 13.351041113975295,18.804904445008997 13.328375898283873,18.907140626165628 13.307498402000723,19.009756798812916 13.28841498461346,19.1127217050706 0.0911534819267521,93.95811093399841 0.07386995642917338,94.06139320975862 0.05839158755057827,94.16496139423961 0.044723090152067435,94.26878393956912 0.032868627790360705,94.37282922039408 0.022831811449526285,94.47706554351406 0.014615698441055258,94.58146115753524 0.008222791472556779,94.68598426254233 0.0036550378854256493,94.790603019785 0.0009138290616519384,94.8952855613763 0.0,95.0 0.0009138290616519384,95.1047144386237 0.0036550378854256493,95.209396980215 0.008222791472556779,95.31401573745767 0.014615698441055258,95.41853884246476 0.022831811449526285,95.52293445648596 0.032868627790360705,95.62717077960592 0.04472309015206832,95.73121606043088 0.058391587550577384,95.83503860576039 0.07386995642917427,95.93860679024138 0.0911534819267521,96.04188906600159 0.1102368993140157,96.14485397225927 0.13111439559716587,96.24747014490656 0.15377961128858963,96.34970632606318 0.17822564234402094,96.451531373598 0.2044450422655908,96.55291427061513 0.23242982437008664,96.653824134902 0.2621714642217867,96.75423022833643 0.29366090222907903,96.85410196624969 0.32688854640409915,96.95340892674294 0.3618442752845503,97.05212085995402 0.3985174410167893,97.1502076972718 0.43689687259927634,97.24763956049547 0.476970879285358,97.34438677093564 0.5187272541443955,97.4404198584548 0.5621532777801006,97.5357095704442 0.6072357222049973,97.63022688073447 0.6539608548697933,97.72394299843728 0.7023144428464381,97.81682937671535 0.752281757163626,97.90885772147803 0.803847577293368,98.0 0.8569961957873264,98.09022844946033 0.911711423061444,98.17951558539923 0.9679765923274566,98.26783421009016 1.0257745646697503,98.35515742082448 1.0850877342660485,98.44145861810628 1.1458980337503162,98.52671151375483 1.2081869397162421,98.61089013891228 1.2719354783596684,98.69396885195395 1.3371242312581746,98.77592234629903 1.4037333412861326,98.85672565811923 1.4717425186633681,98.93635417394304 1.5411310471356359,99.01478363815315 1.6118777902849768,99.09199016037499 1.6839611979680926,99.16795022275399 1.7573593128807152,99.24264068711929 1.8320497772460156,99.31603880203191 1.9080098396250094,99.38812220971502 1.9852163618468506,99.45886895286436 2.0636458260569572,99.52825748133664 2.1432743418807636,99.59626665871387 2.2240776537009763,99.66287576874183 2.30603114804605,99.72806452164033 2.38910986108771,99.79181306028376 2.4732884862451616,99.85410196624969 2.558541381893723,99.91491226573395 2.6448425791755197,99.97422543533025 2.7321657899098373,100.03202340767254 2.820484414600771,100.08828857693855 2.9097715505396744,100.14300380421267 3.0000000000000013,100.19615242270663 3.091142278521978,100.24771824283637 3.1831706232846546,100.29768555715356 3.27605700156272,100.3460391451302 3.3697731192655347,100.392764277795 3.464290429555804,100.4378467222199 3.559580141545198,100.4812727458556 3.6556132290643575,100.52302912071464 3.7523604395045274,100.56310312740072 3.8497923027281984,100.60148255898321 3.9478791400459876,100.63815572471545 4.04659107325706,100.67311145359591 4.145898033750316,100.70633909777092 4.24576977166358,100.73782853577822 4.346175865098006,100.76757017562991 4.447085729384875,100.79555495773441 4.548468626401993,100.82177435765598 4.65029367393681,100.84622038871142 4.752529855093444,100.86888560440283 4.855146027740731,100.88976310068598 4.958110933998418,100.90884651807325 103.95811093399841,117.70473877210331 104.06139320975862,117.72202229760089 104.16496139423961,117.73750066647949 104.26878393956912,117.751169163878 104.37282922039408,117.7630236262397 104.47706554351404,117.77306044258054 104.58146115753524,117.78127655558902 104.68598426254233,117.7876694625575 104.790603019785,117.79223721614464 104.8952855613763,117.7949784249684 105.0,117.79589225403006 155.0,117.79589225403006 155.1047144386237,117.7949784249684 155.20939698021502,117.79223721614464 155.31401573745765,117.7876694625575 155.41853884246476,117.78127655558902 155.52293445648596,117.77306044258054 155.62717077960593,117.7630236262397 155.73121606043088,117.75116916387799 155.8350386057604,117.73750066647949 155.93860679024138,117.72202229760089 254.93860679024138,100.92613004357082 255.04188906600157,100.90884651807325 255.14485397225926,100.88976310068598 255.24747014490654,100.86888560440283 255.3497063260632,100.84622038871142 255.45153137359802,100.82177435765598 255.55291427061513,100.79555495773441 255.65382413490198,100.76757017562991 255.7542302283364,100.7378285357782 255.8541019662497,100.70633909777092 255.95340892674295,100.67311145359591 256.052120859954,100.63815572471545 256.1502076972718,100.60148255898321 256.2476395604955,100.56310312740072 256.34438677093567,100.52302912071464 256.4404198584548,100.4812727458556 256.53570957044417,100.4378467222199 256.6302268807345,100.39276427779501 256.7239429984373,100.3460391451302 256.81682937671536,100.29768555715356 256.908857721478,100.24771824283637 257.0,100.19615242270663 257.0902284494603,100.14300380421267 257.1795155853992,100.08828857693855 257.26783421009014,100.03202340767254 257.35515742082447,99.97422543533025 257.44145861810625,99.91491226573395 257.52671151375483,99.85410196624969 257.6108901389123,99.79181306028376 257.69396885195397,99.72806452164033 257.775922346299,99.66287576874183 257.8567256581192,99.59626665871387 257.936354173943,99.52825748133664 258.0147836381532,99.45886895286436 258.09199016037496,99.38812220971502 258.167950222754,99.31603880203191 258.24264068711926,99.24264068711929 258.3160388020319,99.16795022275399 258.38812220971505,99.09199016037499 258.45886895286435,99.01478363815315 258.52825748133665,98.93635417394304 258.5962666587139,98.85672565811923 258.6628757687418,98.77592234629903 258.7280645216403,98.69396885195395 258.79181306028374,98.6108901389123 258.8541019662497,98.52671151375483 258.91491226573396,98.44145861810628 258.97422543533025,98.35515742082448 259.03202340767257,98.26783421009016 259.08828857693857,98.17951558539923 259.1430038042127,98.09022844946033 259.19615242270663,98.0 259.24771824283636,97.90885772147803 259.29768555715356,97.81682937671535 259.3460391451302,97.72394299843728 259.392764277795,97.63022688073447 259.4378467222199,97.5357095704442 259.4812727458556,97.4404198584548 259.5230291207146,97.34438677093564 259.5631031274007,97.24763956049547 259.6014825589832,97.1502076972718 259.63815572471543,97.05212085995402 259.6731114535959,96.95340892674294 259.7063390977709,96.85410196624969 259.7378285357782,96.75423022833643 259.7675701756299,96.653824134902 259.7955549577344,96.55291427061512 259.82177435765595,96.451531373598 259.8462203887114,96.34970632606318 259.86888560440286,96.24747014490656 259.88976310068597,96.14485397225927 259.90884651807323,96.04188906600159 259.9261300435708,95.93860679024138 259.9416084124494,95.83503860576039 259.95527690984795,95.73121606043088 259.9671313722096,95.62717077960592 259.9771681885505,95.52293445648596 259.98538430155895,95.41853884246476 259.9917772085274,95.31401573745767 259.99634496211456,95.209396980215 259.99908617093837,95.1047144386237 260.0,95 259.99908617093837,94.8952855613763 259.99634496211456,94.790603019785 259.9917772085274,94.68598426254233 259.98538430155895,94.58146115753524 259.9771681885505,94.47706554351404 259.9671313722096,94.37282922039408 259.95527690984795,94.26878393956912 259.9416084124494,94.16496139423961 259.9261300435708,94.06139320975862 246.72886854088412,19.2160039808308 246.71158501538656,19.112721705070605 246.6925015979993,19.009756798812916 246.67162410171613,18.907140626165628 246.6489588860247,18.804904445008994 246.62451285496928,18.70307939747418 246.59829345504772,18.60169650045706 246.5703086729432,18.50078663617019 246.54056703309152,18.400380542735764 246.50907759508422,18.300508804822503 246.4758499509092,18.201201844329244 246.44089422202876,18.102489911118173 246.4042210562965,18.004403073800383 246.36584162471402,17.906971210576714 246.32576761802795,17.810224000136543 246.2840112431689,17.714190912617383 246.2405852195332,17.618901200627988 246.1955027751083,17.52438389033772 246.14877764244352,17.430667772634905 246.10042405446686,17.337781394356842 246.05045674014968,17.245753049594164 245.99889092001993,17.154610771072186 245.94574230152597,17.06438232161186 245.89102707425187,16.975095185672956 245.83476190498584,16.88677656098202 245.77696393264355,16.799453350247703 245.71765076304726,16.71315215296591 245.656840463563,16.627899257317345 245.59455155759704,16.543720632159896 245.53080301895363,16.460641919118235 245.46561426605513,16.37868842477316 245.39900515602716,16.29788511295295 245.33099597864992,16.21825659712914 245.26160745017768,16.139827132919038 245.19086070702832,16.062620610697195 245.1187772993452,15.986660548318202 245.0453791844326,15.911970083952902 244.97068872006727,15.838571969040279 244.8947286576883,15.766488561357162 244.81752213546645,15.69574181820782 244.73909267125634,15.626353289735555 244.65946415543254,15.558344112358316 244.5786608436123,15.49173500233036 244.49670734926724,15.426546249431853 244.41362863622558,15.362797710788428 244.32945001106813,15.3005088048225 244.24419711541958,15.239698505338236 244.15789591813777,15.180385335741935 244.07057270740347,15.122587363399642 243.98225408271253,15.06632219413363 243.8929669467736,15.011606966859512 243.8027384973133,14.958458348365554 243.71159621879133,14.906892528235812 243.61956787402863,14.856925213918625 243.52668149575058,14.80857162594198 243.43296537804775,14.761846493277183 243.3384480677575,14.716764048852287 243.2431583557681,14.67333802521658 243.14712526824894,14.631581650357543 243.05037805780876,14.591507643671461 242.9529461945851,14.553128212088975 242.85485935726732,14.516455046356736 242.75614742405625,14.481499317476285 242.656840463563,14.448271673301264 242.5569687256497,14.416782235293972 242.45656263221528,14.387040595442272 242.35565276792843,14.359055813337775 242.25426987091132,14.332836413416207 242.1524448233765,14.308390382360773 242.05020864221984,14.285725166669351 241.94759246957256,14.264847670386201 241.84462756331487,14.245764252998939 241.74134528755468,14.22848072750136 241.6377771030737,14.213002358622763 241.53395455774418,14.199333861224254 241.42990927691923,14.187479398862546 241.32567295379926,14.177442582521712 241.22127733977806,14.16922646951324 241.11675423477095,14.162833562544742 241.01213547752832,14.158265808957612 240.907452935937,14.155524600133838 240.8027384973133,14.154610771072186">
    </polygon>
    <g transform="translate(-6.5, 9.219999999999999) rotate(10.0, 0, 89.28)">
      <rect height="13.72" width="13.62" x="19.0" y="8">
      </rect>
      <rect height="13.72" width="13.62" x="19.0" y="27.0">
      </rect>
      <rect height="13.72" width="13.62" x="19.0" y="46.0">
      </rect>
      <rect height="13.72" width="13.62" x="19.0" y="65.0">
      </rect>
      <rect height="13.72" width="13.62" x="38.0" y="5">
      </rect>
      <rect height="13.72" width="13.62" x="38.0" y="24.0">
      </rect>
      <rect height="13.72" width="13.62" x="38.0" y="43.0">
      </rect>
      <rect height="13.72" width="13.62" x="38.0" y="62.0">
      </rect>
      <rect height="13.72" width="13.62" x="57.0" y="0">
      </rect>
      <rect height="13.72" width="13.62" x="57.0" y="19.0">
      </rect>
      <rect height="13.72" width="13.62" x="57.0" y="38.0">
      </rect>
      <rect height="13.72" width="13.62" x="57.0" y="57.0">
      </rect>
      <rect height="13.72" width="13.62" x="76.0" y="6">
      </rect>
      <rect height="13.72" width="13.62" x="76.0" y="25.0">
      </rect>
      <rect height="13.72" width="13.62" x="76.0" y="44.0">
      </rect>
      <rect height="13.72" width="13.62" x="76.0" y="63.0">
      </rect>
      <rect height="13.72" width="13.62" x="95.0" y="11">
      </rect>
      <rect height="13.72" width="13.62" x="95.0" y="30.0">
      </rect>
      <rect height="13.72" width="13.62" x="95.0" y="49.0">
      </rect>
      <rect height="13.72" width="13.62" x="95.0" y="68.0">
      </rect>
      <rect height="13.72" width="13.62" x="114.0" y="46.0">
      </rect>
      <rect height="13.72" width="13.62" x="114.0" y="65.0">
      </rect>
    </g>
    <g transform="translate(260,0) scale(-1, 1)">
      <g transform="translate(-6.5, 9.219999999999999) rotate(10.0, 0, 89.28)">
        <rect height="13.72" width="13.62" x="19.0" y="8">
        </rect>
        <rect height="13.72" width="13.62" x="19.0" y="27.0">
        </rect>
        <rect height="13.72" width="13.62" x="19.0" y="46.0">
        </rect>
        <rect height="13.72" width="13.62" x="19.0" y="65.0">
        </rect>
        <rect height="13.72" width="13.62" x="38.0" y="5">
        </rect>
        <rect height="13.72" width="13.62" x="38.0" y="24.0">
        </rect>
        <rect height="13.72" width="13.62" x="38.0" y="43.0">
        </rect>
        <rect height="13.72" width="13.62" x="38.0" y="62.0">
        </rect>
        <rect height="13.72" width="13.62" x="57.0" y="0">
        </rect>
        <rect height="13.72" width="13.62" x="57.0" y="19.0">
        </rect>
        <rect height="13.72" width="13.62" x="57.0" y="38.0">
        </rect>
        <rect height="13.72" width="13.62" x="57.0" y="57.0">
        </rect>
        <rect height="13.72" width="13.62" x="76.0" y="6">
        </rect>
        <rect height="13.72" width="13.62" x="76.0" y="25.0">
        </rect>
        <rect height="13.72" width="13.62" x="76.0" y="44.0">
        </rect>
        <rect height="13.72" width="13.62" x="76.0" y="63.0">
        </rect>
        <rect height="13.72" width="13.62" x="95.0" y="11">
        </rect>
        <rect height="13.72" width="13.62" x="95.0" y="30.0">
        </rect>
        <rect height="13.72" width="13.62" x="95.0" y="49.0">
        </rect>
        <rect height="13.72" width="13.62" x="95.0" y="68.0">
        </rect>
        <rect height="13.72" width="13.62" x="114.0" y="46.0">
        </rect>
        <rect height="13.72" width="13.62" x="114.0" y="65.0">
        </rect>
      </g>
    </g>
  </g>
</svg>